B3 Indexes • rb3
…
B3 Indexes

The function rb3::indexes_get list the names of available indexes.

indexes_get()
#>  [1] "AGFS" "BDRX" "GPTW" "IBOV" "IBRA" "IBSD" "IBXL" "IBXX" "ICO2" "ICON"
#> [11] "IDIV" "IDVR" "IEEX" "IFIL" "IFIX" "IFNC" "IGCT" "IGCX" "IGNM" "IMAT"
#> [21] "IMOB" "INDX" "ISEE" "ITAG" "IVBX" "MLCX" "SMLL" "UTIL"

Indexes Composition and Weights

The composition of B3 indexes are available through the function rb3::index_weights_get. This function returns a data.frame with the current compostion of the requested index, all symbols that compound the index, their weights and theoretical position. Here the IBOVESPA (IBOV) Index has its composition listed.

index_weights_get("IBOV")
#> # A tibble: 87 × 3
#>    symbol  weight   position
#>    <chr>    <dbl>      <dbl>
#>  1 ABEV3  0.0264  4394245879
#>  2 ALOS3  0.00618  532616595
#>  3 ALPA4  0.00078  176733968
#>  4 ARZZ3  0.00176   62305891
#>  5 ASAI3  0.00798 1349217892
#>  6 AZUL4  0.00229  327593725
#>  7 B3SA3  0.0354  5602790110
#>  8 BBAS3  0.0344  1420949112
#>  9 BBDC3  0.0100  1500728902
#> 10 BBDC4  0.0384  5146576868
#> # ℹ 77 more rows

The IBr100 Index (IBXX)

index_weights_get("IBXX")
#> # A tibble: 100 × 3
#>    symbol  weight   position
#>    <chr>    <dbl>      <dbl>
#>  1 ABEV3  0.0250  4394245879
#>  2 ALOS3  0.00586  532616595
#>  3 ALPA4  0.00074  176733968
#>  4 ARZZ3  0.00167   62305891
#>  5 ASAI3  0.00757 1349217892
#>  6 AURE3  0.00167  301966319
#>  7 AZUL4  0.00217  327593725
#>  8 B3SA3  0.0336  5602790110
#>  9 BBAS3  0.0326  1420949112
#> 10 BBDC3  0.00951 1500728902
#> # ℹ 90 more rows

The Small Caps Index (SMLL)

index_weights_get("SMLL")
#> # A tibble: 116 × 3
#>    symbol  weight  position
#>    <chr>    <dbl>     <dbl>
#>  1 AALR3  0.00027   7916084
#>  2 ABCB4  0.006    74288668
#>  3 AESB3  0.0130  317103937
#>  4 AGRO3  0.00567  63773043
#>  5 ALOS3  0.0471  532616595
#>  6 ALPA4  0.00596 176733968
#>  7 ALUP11 0.0153  145652313
#>  8 AMAR3  0.00039  31628685
#>  9 AMBP3  0.00301  55695890
#> 10 ANIM3  0.00381 256834750
#> # ℹ 106 more rows
…
Index by Segment

rb3::index_by_segment_get returns a data.frame with all stocks that are in the index, their economic segment, weights, position and segment weight in the index.

index_by_segment_get("IBOV")
#> # A tibble: 86 × 6
#>    symbol segment                      weight segment_weight position refdate   
#>    <chr>  <chr>                         <dbl>          <dbl>    <dbl> <date>    
#>  1 WEGE3  Bens Indls / Máqs e Equips  0.0254         0.0254    1.48e9 2024-03-11
#>  2 EMBR3  Bens Indls / Mat Transporte 0.00914        0.00914   7.35e8 2024-03-11
#>  3 AZUL4  Bens Indls/Transporte       0.00187        0.0208    3.28e8 2024-03-11
#>  4 CCRO3  Bens Indls/Transporte       0.00638        0.0208    9.95e8 2024-03-11
#>  5 RAIL3  Bens Indls/Transporte       0.0125         0.0208    1.22e9 2024-03-11
#>  6 BRFS3  Cons N  Básico / Alimentos… 0.0130         0.0285    1.68e9 2024-03-11
#>  7 JBSS3  Cons N  Básico / Alimentos… 0.0114         0.0285    1.13e9 2024-03-11
#>  8 MRFG3  Cons N  Básico / Alimentos… 0.00148        0.0285    3.32e8 2024-03-11
#>  9 BEEF3  Cons N  Básico / Alimentos… 0.00081        0.0285    2.61e8 2024-03-11
#> 10 SMTO3  Cons N  Básico / Alimentos… 0.00183        0.0285    1.42e8 2024-03-11
#> # ℹ 76 more rows
…
